{
  "project_info": {
    "project_number": "495173381155",
    "firebase_url": "https://premiumtravel-58693.firebaseio.com",
    "project_id": "premiumtravel-58693",
    "storage_bucket": "premiumtravel-58693.appspot.com"
  },
  "client": [
    {
      "client_info": {
        "mobilesdk_app_id": "1:495173381155:android:2d909bcdba34928b",
        "android_client_info": {
          "package_name": "com.example.premiumtravel"
        }
      },
      "oauth_client": [
        {
          "client_id": "495173381155-388tpjhiptslr0b2i7v6pn9n7c2f8omt.apps.googleusercontent.com",
          "client_type": 3
        }
      ],
      "api_key": [
        {
          "current_key": "AIzaSyDQjQgqnj2OKLOq9zh4_2Y8RLi7-uzyA8s"
        }
      ],
      "services": {
        "analytics_service": {
          "status": 1
        },
        "appinvite_service": {
          "status": 1,
          "other_platform_oauth_client": []
        },
        "ads_service": {
          "status": 2
        }
      }
    }
  ],
  "configuration_version": "1"
}